[gd_scene load_steps=3 format=2]

[ext_resource path="res://actors/player/states/Dying.gd" type="Script" id=1]
[ext_resource path="res://actors/player/DeathParticles.tscn" type="PackedScene" id=2]

[node name="Dying" type="Node"]
pause_mode = 2
script = ExtResource( 1 )
death_particles = ExtResource( 2 )

[node name="Timer" type="Timer" parent="."]
one_shot = true
[connection signal="timeout" from="Timer" to="." method="_on_Timer_timeout"]
