[gd_scene load_steps=2 format=2]

[ext_resource path="res://actors/explosives/BaseExplosive.gd" type="Script" id=1]

[node name="BaseExplosive" type="KinematicBody2D" groups=[
"explosive",
]]
script = ExtResource( 1 )

[node name="PhysicBody" type="CollisionShape2D" parent="."]

[node name="Detector" type="Area2D" parent="."]
editor/display_folded = true
input_pickable = false
gravity_vec = Vector2( 0, 0 )
gravity = 0.0
linear_damp = 0.0
angular_damp = 0.0

[node name="CollisionShape2D" type="CollisionShape2D" parent="Detector"]
[connection signal="body_entered" from="Detector" to="." method="on_body_detected"]
