[gd_scene load_steps=6 format=2]

[ext_resource path="res://levels/enemy spawn/EnemySpawn.gd" type="Script" id=1]
[ext_resource path="res://levels/enemy spawn/Bestiary.gd" type="Script" id=2]
[ext_resource path="res://actors/enemies/states machine/AI.tscn" type="PackedScene" id=3]
[ext_resource path="res://levels/enemy spawn/States/Active.gd" type="Script" id=4]
[ext_resource path="res://levels/enemy spawn/States/Idle.gd" type="Script" id=5]

[node name="EnemySpawn" type="Position2D" groups=[
"enemy_spawn",
]]
script = ExtResource( 1 )
enemy_list = ExtResource( 2 )
one_shot = true
enemy_name = "Ground Enemy"
weapon = "Pistol"

[node name="AI" parent="." instance=ExtResource( 3 )]

[node name="Active" type="Node" parent="AI"]
script = ExtResource( 4 )

[node name="Waiting" type="Node" parent="AI"]
script = ExtResource( 5 )

[node name="spawn_timer" type="Timer" parent="."]
one_shot = true
[connection signal="timeout" from="spawn_timer" to="." method="_on_spawn_timer_timeout"]
